endpoint is :
https://reqres.in/api/register

request body is:
{
    "email": "eve.holt@reqres.in",
    "password": "pistol"
}

response header date is :
Mon, 04 Mar 2024 11:48:16 GMT

response body is :
{
    "id": 4,
    "token": "QpwL5tke4Pnpja7X4"
}

